18
  Atoms 16, 17 and 18 are capping hydrogens
N         21.09700       21.28200       10.22900
C         21.26800       21.15500        8.87100
N         22.52300       21.08900        8.51600
C         23.22400       21.18100        9.71500
C         24.63900       21.16800        9.97900
O         25.57800       21.06900        9.17800
N         24.90900       21.28800       11.34000
C         23.95400       21.40500       12.32300
N         24.41200       21.50900       13.57900
N         22.64500       21.41800       12.09500
C         22.35400       21.30400       10.77900
H         20.45600       21.11400        8.17600
H         25.86800       21.28900       11.62400
H         25.39600       21.49900       13.75500
H         23.76900       21.59700       14.34000
H         20.24300       21.35700       10.74400
H         22.89200       21.12000        7.58700
H         25.65900       21.55700        8.30900
