15

C          1.11800        4.40900       -0.12600
C         -0.09400        5.01300       -0.08500
C         -1.26000        2.84800        0.04000
C          1.22400        2.94000       -0.08400
C          2.37400        5.19200       -0.21600
N         -1.28200        4.27100       -0.00400
N         -0.00000        2.20000        0.00000
O         -2.30800        2.21800        0.11100
O          2.24300        2.26900       -0.11100
H         -0.20400        6.10600       -0.11400
H         -2.15700        4.74400        0.02300
H          2.18900        6.27300       -0.19700
H          3.04500        4.95000        0.61900
H          2.91000        4.95900       -1.14700
Ag         0.00000        0.00000        0.00000
